"facility_name","facility_address","patient_name","patient_reference_number","patient_id_number","date_of_birth","contact_number"
"Sandton MediCenter","1 Sandton Drive","John Doe","GT1025",9106020192849,1991-06-02,"0739828102"
"Sandton MediCenter","1 Sandton Drive","Jane Doe","GT1026",7905020189201,1979-05-02,"0739828103"
"Sandton MediCenter","1 Sandton Drive","Jack Snow","GT1027",7905050184202,1979-05-05,"0839828102"
"Pretoria MediCenter","1 Pretoria Drive","Jill Doe","GT2025",8912128828089,1989-12-12,"0609281028"
"Pretoria MediCenter","1 Pretoria Drive","Jane Snow","GT2026",5010101827084,1950-10-10,"0850289012"
